Timestamp,User Count,Type,Name,Requests/s,Failures/s,50%,66%,75%,80%,90%,95%,98%,99%,99.9%,99.99%,100%,Total Request Count,Total Failure Count,Total Median Response Time,Total Average Response Time,Total Min Response Time,Total Max Response Time,Total Average Content Size
1646578941,1,,Aggregated,0.000000,0.000000,10,14,15,15,15,22,22,22,22,22,22,15,0,10,12.133333333333333,7,22,22.0
1646578942,2,,Aggregated,0.000000,0.000000,45,49,53,56,76,120,180,180,180,180,180,32,0,22,40.15625,6,183,22.0
1646578944,3,,Aggregated,0.000000,0.000000,49,55,76,93,98,120,160,180,180,180,180,53,0,49,54.15094339622642,6,183,22.18867924528302
1646578945,4,,Aggregated,7.500000,0.000000,52,92,95,97,140,160,180,290,290,290,290,74,0,52,67.66216216216216,6,289,22.12162162162162
1646578946,5,,Aggregated,13.250000,0.000000,56,95,99,120,150,190,290,460,460,460,460,95,0,56,81.63157894736842,6,459,22.231578947368423
1646578947,6,,Aggregated,14.800000,0.000000,82,99,120,140,190,220,290,460,570,570,570,117,0,82,95.72649572649573,6,573,22.358974358974358
1646578948,7,,Aggregated,15.166667,0.000000,95,110,140,160,200,260,460,570,740,740,740,138,0,94,109.28260869565217,6,741,22.297101449275363
1646578949,8,,Aggregated,16.000000,0.000000,97,140,160,190,240,290,460,740,870,870,870,163,0,97,124.12883435582822,6,872,22.25153374233129
1646578950,9,,Aggregated,16.500000,0.000000,100,150,190,200,260,300,460,740,870,870,870,184,0,100,132.66304347826087,6,872,22.277173913043477
1646578951,10,,Aggregated,16.666667,0.000000,110,160,200,210,280,340,460,740,1000,1000,1000,208,0,110,146.46634615384616,6,995,22.29326923076923
1646578953,11,,Aggregated,17.000000,0.000000,110,180,210,240,300,380,570,870,1200,1200,1200,235,0,110,160.29787234042553,6,1161,22.314893617021276
1646578954,12,,Aggregated,19.800000,0.000000,140,200,240,270,340,410,570,1000,1200,1200,1200,265,0,140,174.4188679245283,6,1221,22.362264150943396
1646578955,13,,Aggregated,20.200000,0.000000,140,200,250,280,360,440,740,1200,1400,1400,1400,287,0,140,185.6829268292683,6,1353,22.407665505226483
1646578956,14,,Aggregated,20.200000,0.000000,150,210,270,290,380,460,740,1200,1500,1500,1500,310,0,150,197.59354838709677,6,1531,22.393548387096775
1646578958,15,,Aggregated,20.200000,0.000000,160,240,280,320,400,500,870,1200,1700,1700,1700,335,0,160,210.18507462686568,6,1651,22.391044776119404
1646578959,16,,Aggregated,20.700000,0.000000,160,240,290,330,440,530,870,1400,1800,1800,1800,362,0,160,224.76243093922653,6,1820,22.400552486187845
1646578960,17,,Aggregated,20.300000,0.000000,190,260,320,360,460,570,1000,1500,1900,1900,1900,391,0,190,238.16624040920715,6,1913,22.406649616368288
1646578962,18,,Aggregated,21.200000,0.000000,200,280,330,370,490,580,1000,1500,2000,2000,2000,422,0,200,252.56635071090048,6,2019,22.40521327014218
1646578963,19,,Aggregated,20.600000,0.000000,200,290,360,400,520,620,1000,1700,2100,2100,2100,455,0,200,266.51428571428573,6,2135,22.439560439560438
1646578965,20,,Aggregated,20.900000,0.000000,210,310,370,420,560,650,1200,1800,2200,2200,2200,490,0,210,281.5285714285714,6,2249,22.43673469387755
1646578966,21,,Aggregated,21.700000,0.000000,230,330,400,450,580,680,1200,1800,2400,2400,2400,527,0,230,297.4648956356736,6,2403,22.449715370018975
1646578968,22,,Aggregated,21.400000,0.000000,240,340,420,470,600,740,1200,1900,2500,2500,2500,566,0,240,312.5459363957597,6,2520,22.452296819787986
1646578970,23,,Aggregated,22.400000,0.000000,250,360,450,500,640,760,1200,1900,2700,2700,2700,607,0,250,329.1169686985173,6,2699,22.453047775947283
1646578972,24,,Aggregated,22.400000,0.000000,270,380,470,530,680,810,1200,2000,2800,2800,2800,650,0,270,345.88153846153847,6,2826,22.51076923076923
1646578973,25,,Aggregated,23.100000,0.000000,280,400,480,540,690,820,1200,2000,2800,2800,2800,672,0,280,352.07440476190476,6,2826,22.53422619047619
1646578974,26,,Aggregated,22.200000,0.000000,280,410,490,560,720,850,1200,2100,3000,3000,3000,695,0,280,362.83741007194243,6,2986,22.526618705035972
1646578975,27,,Aggregated,22.800000,0.000000,290,410,510,570,730,870,1200,2000,3000,3000,3000,718,0,290,369.2534818941504,6,2986,22.508356545961004
1646578977,28,,Aggregated,21.700000,0.000000,290,430,520,580,750,880,1200,2100,3200,3200,3200,742,0,290,380.0215633423181,6,3166,22.5188679245283
1646578978,29,,Aggregated,22.800000,0.000000,300,440,530,600,760,910,1200,2200,3200,3200,3200,767,0,300,390.40026075619295,6,3236,22.516297262059975
1646578979,30,,Aggregated,23.400000,0.000000,310,450,560,610,790,950,1400,2400,3400,3400,3400,793,0,310,404.5435056746532,6,3439,22.495586380832282
1646578980,31,,Aggregated,19.600000,0.000000,320,460,560,640,810,960,1400,2400,3500,3500,3500,820,0,320,415.04756097560977,6,3503,22.491463414634147
1646578982,32,,Aggregated,20.100000,0.000000,330,480,580,640,840,1000,1500,2500,3600,3600,3600,848,0,330,427.54245283018867,6,3644,22.504716981132077
1646578983,33,,Aggregated,21.300000,0.000000,340,490,600,670,860,1000,1500,2700,3800,3800,3800,877,0,340,441.2873432155074,6,3762,22.523375142531357
1646578984,34,,Aggregated,22.000000,0.000000,350,500,610,680,880,1100,1500,2700,4000,4000,4000,907,0,350,454.48070562293276,6,3954,22.51598676957001
1646578986,35,,Aggregated,20.500000,0.000000,360,520,630,710,910,1100,1700,2800,4100,4100,4100,938,0,360,467.04477611940297,6,4090,22.536247334754798
1646578987,36,,Aggregated,21.200000,0.000000,370,530,640,730,940,1200,1700,3000,4100,4100,4100,970,0,360,480.41134020618557,6,4125,22.55979381443299
1646578989,37,,Aggregated,21.400000,0.000000,370,550,670,750,960,1200,1700,3000,4100,4200,4200,1003,0,370,493.51545363908275,6,4237,22.548354935194418
1646578990,38,,Aggregated,22.800000,0.000000,390,560,680,770,1000,1200,1800,3200,4200,4300,4300,1037,0,390,507.23818707810995,6,4343,22.555448408871744
1646578992,39,,Aggregated,23.600000,0.000000,400,570,700,780,1000,1200,1800,3200,4300,4400,4400,1072,0,400,519.7929104477612,6,4418,22.57276119402985
1646578994,40,,Aggregated,21.700000,0.000000,410,590,720,810,1100,1300,1800,3200,4400,4600,4600,1108,0,410,535.3763537906137,6,4587,22.569494584837546
1646578995,41,,Aggregated,22.400000,0.000000,420,600,740,830,1100,1300,1900,3400,4600,4700,4700,1145,0,420,548.6366812227075,6,4691,22.56768558951965
1646578997,42,,Aggregated,23.100000,0.000000,430,620,760,860,1100,1300,1900,3500,4700,4900,4900,1183,0,430,564.3795435333897,6,4914,22.581572273879967
1646578999,43,,Aggregated,21.300000,0.000000,440,640,780,880,1200,1400,1900,3500,4900,5000,5000,1222,0,440,578.6587561374795,6,5000,22.594926350245498
1646579001,44,,Aggregated,21.300000,0.000000,450,660,810,900,1200,1400,1900,3600,5000,5200,5200,1262,0,450,595.0,6,5217,22.606973058637085
1646579003,45,,Aggregated,21.900000,0.000000,460,670,820,930,1200,1400,1900,3600,5200,5300,5300,1303,0,460,609.5771297006908,6,5303,22.62010744435917
1646579005,46,,Aggregated,19.000000,0.000000,480,700,860,960,1300,1500,2100,3800,5300,5700,5700,1345,0,480,631.7724907063197,6,5669,22.63717472118959
1646579007,47,,Aggregated,19.500000,0.000000,490,720,880,990,1300,1500,2100,4000,5700,5700,5700,1388,0,490,646.5799711815562,6,5728,22.628962536023053
1646579009,48,,Aggregated,20.000000,0.000000,510,740,910,1000,1300,1600,2200,4000,5700,6200,6200,1432,0,510,670.6836592178771,6,6177,22.61522346368715
1646579012,49,,Aggregated,21.000000,0.000000,530,770,950,1100,1400,1700,2300,4100,6200,6600,6600,1477,0,530,701.3480027081923,6,6611,22.62288422477996
1646579014,50,,Aggregated,17.000000,0.000000,550,790,980,1100,1500,1800,2400,4100,6600,7000,7000,1523,0,550,723.2022324359816,6,6998,22.629021667761
1646579017,51,,Aggregated,22.000000,0.000000,570,830,1000,1200,1600,1900,2600,4100,7000,7500,7500,1570,0,570,759.5426751592356,6,7525,22.633757961783438
1646579020,52,,Aggregated,18.200000,0.000000,590,870,1100,1200,1600,2100,2700,4100,7500,7800,7800,1618,0,590,793.2336217552534,6,7777,22.61557478368356
1646579022,53,,Aggregated,13.800000,0.000000,610,900,1100,1300,1700,2100,2700,4200,7800,8000,8000,1666,0,610,815.8955582232893,6,7956,22.60264105642257
1646579025,54,,Aggregated,18.900000,0.000000,630,930,1200,1300,1700,2100,2800,4200,7800,8000,8000,1714,0,630,837.9329054842474,6,7956,22.609101516919488
1646579027,55,,Aggregated,15.100000,0.000000,650,950,1200,1300,1800,2200,2800,4300,7800,8000,8000,1762,0,650,858.5334846765039,6,7956,22.60839954597049
1646579030,56,,Aggregated,19.100000,0.000000,670,980,1200,1400,1800,2200,2800,4300,7800,8000,8000,1810,0,670,875.4104972375691,6,7956,22.6
1646579032,57,,Aggregated,24.000000,0.000000,680,1000,1200,1400,1900,2200,2800,4400,7800,8000,8000,1858,0,680,895.5995694294941,6,7956,22.590958019375673
1646579035,58,,Aggregated,19.200000,0.000000,700,1000,1300,1400,1900,2200,2900,4400,7800,8000,8000,1906,0,700,915.5005246589717,6,7956,22.599685204617
1646579038,59,,Aggregated,19.200000,0.000000,720,1100,1300,1500,1900,2300,2900,4600,7800,8000,8000,1954,0,720,934.9774820880245,6,7956,22.589559877175027
1646579040,60,,Aggregated,18.900000,0.000000,740,1100,1300,1500,2000,2300,2900,4600,7800,8000,8000,2002,0,740,952.2652347652347,6,7956,22.5989010989011
1646579043,61,,Aggregated,19.200000,0.000000,750,1100,1300,1500,2000,2300,3000,4700,7800,8000,8000,2050,0,750,968.5946341463415,6,7956,22.59268292682927
1646579046,62,,Aggregated,19.200000,0.000000,770,1100,1400,1500,2000,2300,3100,4900,7800,8000,8000,2098,0,770,984.4151572926597,6,7956,22.59246901811249
1646579048,63,,Aggregated,14.400000,0.000000,780,1100,1400,1600,2000,2300,3100,4900,7800,8000,8000,2146,0,780,999.5591798695247,6,7956,22.606710158434296
1646579051,64,,Aggregated,19.200000,0.000000,800,1200,1400,1600,2000,2400,3100,5000,7800,8000,8000,2194,0,800,1012.5934366453965,6,7956,22.601640838650866
1646579053,65,,Aggregated,14.400000,0.000000,820,1200,1400,1600,2100,2400,3100,5000,7800,8000,8000,2242,0,820,1027.5343443354147,6,7956,22.6021409455843
1646579056,66,,Aggregated,19.200000,0.000000,840,1200,1500,1600,2100,2400,3100,5200,7800,8000,8000,2290,0,840,1043.8812227074236,6,7956,22.60655021834061
1646579059,67,,Aggregated,19.200000,0.000000,860,1200,1500,1700,2100,2400,3100,5200,7800,8000,8000,2338,0,860,1064.185628742515,6,7956,22.60650128314799
1646579062,68,,Aggregated,19.200000,0.000000,880,1300,1500,1700,2200,2500,3100,5300,7800,8100,8100,2385,0,880,1084.5765199161426,6,8140,22.61006289308176
1646579065,69,,Aggregated,19.100000,0.000000,900,1300,1500,1700,2200,2500,3100,5300,8000,8300,8300,2431,0,900,1100.6088029617442,6,8278,22.607568901686548
1646579068,70,,Aggregated,18.900000,0.000000,910,1300,1600,1800,2200,2500,3100,5700,8100,8300,8300,2478,0,910,1120.0084745762713,6,8278,22.606133979015336
1646579071,71,,Aggregated,18.800000,0.000000,930,1300,1600,1800,2200,2500,3200,6200,8100,8300,8300,2525,0,930,1135.4887128712871,6,8278,22.60792079207921
1646579074,72,,Aggregated,18.700000,0.000000,940,1300,1600,1800,2200,2500,3400,6900,8100,8300,8300,2572,0,940,1150.7737169517884,6,8278,22.606143079315707
1646579076,73,,Aggregated,15.700000,0.000000,960,1400,1600,1800,2200,2500,3400,6900,8100,8300,8300,2619,0,960,1164.7628865979382,6,8278,22.605956471935855
1646579079,74,,Aggregated,18.800000,0.000000,980,1400,1700,1800,2300,2500,3500,7000,8100,8300,8300,2666,0,980,1181.3285821455363,6,8278,22.606526631657914
1646579082,75,,Aggregated,18.800000,0.000000,990,1400,1700,1900,2300,2600,3500,7000,8100,8300,8300,2713,0,990,1195.4640619240693,6,8278,22.602653888684113
1646579085,76,,Aggregated,18.800000,0.000000,1000,1400,1700,1900,2300,2600,3600,7000,8100,8300,8300,2760,0,1000,1208.6344202898551,6,8278,22.627173913043478
1646579087,77,,Aggregated,15.200000,0.000000,1000,1400,1700,1900,2300,2600,3600,7000,8100,8300,8300,2808,0,1000,1223.215811965812,6,8278,22.621794871794872
1646579090,78,,Aggregated,18.900000,0.000000,1000,1400,1700,1900,2300,2600,3600,7200,8100,8300,8300,2854,0,1000,1232.0501051156273,6,8278,22.62158374211633
1646579093,79,,Aggregated,14.200000,0.000000,1000,1400,1700,1900,2300,2600,3700,7200,8100,8300,8300,2896,0,1000,1231.1184392265193,6,8278,22.6253453038674
1646579095,80,,Aggregated,18.300000,0.000000,1100,1500,1700,1900,2300,2600,4000,7300,8100,8300,8300,2944,0,1100,1246.9786005434783,6,8278,22.63111413043478
1646579098,81,,Aggregated,18.400000,0.000000,1100,1500,1800,1900,2300,2600,4200,7300,8100,8300,8300,2993,0,1100,1265.300033411293,6,8278,22.63113932509188
1646579100,82,,Aggregated,18.500000,0.000000,1100,1500,1800,1900,2300,2600,4200,7300,8100,8300,8300,3029,0,1100,1272.0052822713767,6,8278,22.629910861670517
1646579104,83,,Aggregated,18.500000,0.000000,1100,1500,1800,1900,2300,2600,4600,7300,8100,8300,8300,3041,0,1100,1275.65833607366,6,8278,22.62742518908254
1646579105,84,,Aggregated,14.500000,0.000000,1100,1500,1800,2000,2400,2700,6300,7400,8100,8300,8300,3086,0,1100,1306.8801036941024,6,8278,22.622164614387557
1646579108,85,,Aggregated,9.700000,0.000000,1100,1500,1800,2000,2400,2700,6600,7400,8100,8300,8300,3131,0,1100,1323.0843181092303,6,8278,22.620249121686363
1646579110,86,,Aggregated,14.200000,0.000000,1100,1500,1800,2000,2400,2800,6800,7600,8700,8900,8900,3169,0,1100,1348.1189649731778,6,8867,22.615336068160303
1646579113,87,,Aggregated,13.800000,0.000000,1100,1500,1800,2000,2400,2800,7300,7700,10000,10000,10000,3216,0,1100,1371.3964552238806,6,10271,22.6181592039801
1646579115,88,,Aggregated,17.500000,0.000000,1100,1500,1800,2000,2400,2900,7300,7700,10000,10000,10000,3271,0,1100,1399.886273310914,6,10271,22.62580250687863
1646579117,89,,Aggregated,23.000000,0.000000,1100,1500,1800,2000,2400,3000,7300,7700,10000,10000,10000,3311,0,1100,1408.3267894895803,6,10271,22.624282694050137
1646579120,90,,Aggregated,18.500000,0.000000,1100,1600,1800,2000,2400,3000,7300,7700,10000,10000,10000,3314,0,1100,1409.7573928786965,6,10271,22.623717561858783
1646579122,91,,Aggregated,18.300000,0.000000,1200,1600,1800,2000,2500,3100,7300,7700,10000,10000,10000,3357,0,1200,1435.4629133154601,6,10271,22.62734584450402
1646579125,92,,Aggregated,14.500000,0.000000,1200,1600,1800,2000,2500,3300,7300,7700,10000,10000,10000,3402,0,1200,1445.961493239271,6,10271,22.62669018224574
1646579127,93,,Aggregated,18.600000,0.000000,1200,1600,1900,2000,2500,3500,7300,7800,10000,11000,11000,3440,0,1200,1470.0026162790698,6,11024,22.634011627906975
1646579130,94,,Aggregated,13.100000,0.000000,1200,1600,1900,2000,2500,3700,7400,8300,10000,11000,11000,3487,0,1200,1491.08746773731,6,11024,22.630341267565242
1646579132,95,,Aggregated,17.300000,0.000000,1200,1600,1900,2100,2500,4200,7400,8300,10000,13000,13000,3534,0,1200,1516.7775891341257,6,12911,22.625636672325975
1646579135,96,,Aggregated,17.700000,0.000000,1200,1600,1900,2100,2600,5700,7600,8800,16000,16000,16000,3579,0,1200,1562.8879575300364,6,16056,22.62559374126851
1646579138,97,,Aggregated,13.200000,0.000000,1200,1600,1900,2100,2600,5700,7600,8800,16000,16000,16000,3583,0,1200,1566.416969020374,6,16056,22.627686296399666
1646579140,98,,Aggregated,14.300000,0.000000,1200,1600,1900,2100,2600,6300,7700,8800,16000,16000,16000,3608,0,1200,1593.581485587583,6,16056,22.625554323725055
1646579142,99,,Aggregated,9.600000,0.000000,1200,1600,1900,2100,2600,6400,7700,8800,16000,16000,16000,3638,0,1200,1596.9483232545354,6,16056,22.62561847168774
1646579144,100,,Aggregated,10.400000,0.000000,1200,1600,1900,2100,2600,6600,7800,9200,16000,16000,16000,3683,0,1200,1623.7895737170784,6,16056,22.62612001086071
1646579147,100,,Aggregated,10.400000,0.000000,1200,1600,1900,2100,2700,6600,8000,10000,16000,16000,16000,3729,0,1200,1641.121212121212,6,16056,22.629659426119602
1646579149,100,,Aggregated,15.000000,0.000000,1200,1700,2000,2100,2700,6700,8300,10000,16000,16000,16000,3777,0,1200,1680.76039184538,6,16056,22.62562880593063
